{
  "version": "14.0.4",
  "vulnerabilities": [
    {
      "id": "dd208e1ac6ae3ea35ab8e324edbc291e6b56cca94127f2babb91212aec8f951d",
      "category": "secret_detection",
      "name": "Test for Custom Rulesets",
      "message": "Test for Custom Rulesets detected; please remove and revoke it if this is a leak.",
      "description": "Test for Custom Rulesets secret has been found in commit fec3d9a7.",
      "cve": "main.php:414bd95595331c3de0347cebaa017a193a2cc237abb33c2cd8dcf14bc1d78359:Test for Custom Rulesets",
      "severity": "Critical",
      "confidence": "Unknown",
      "raw_source_code_extract": "Custom Ruleset Test",
      "scanner": {
        "id": "gitleaks",
        "name": "Gitleaks"
      },
      "location": {
        "file": "main.php",
        "commit": {
          "author": "Daniel Paul Searles",
          "date": "2020-10-13T20:50:50Z",
          "message": "Setup custom gitleaks rules file",
          "sha": "fec3d9a79ac9950abc3caf38d51a5328f94a742c"
        },
        "start_line": 14
      },
      "identifiers": [
        {
          "type": "gitleaks_rule_id",
          "name": "Gitleaks rule ID Test for Custom Rulesets",
          "value": "Test for Custom Rulesets"
        }
      ]
    }
  ],
  "scan": {
    "analyzer": {
      "id": "secrets",
      "name": "secrets",
      "url": "https://gitlab.com/gitlab-org/security-products/analyzers/secrets",
      "vendor": {
        "name": "GitLab"
      }
    },
    "scanner": {
      "id": "gitleaks",
      "name": "Gitleaks",
      "url": "https://github.com/zricethezav/gitleaks",
      "vendor": {
        "name": "GitLab"
      },
      "version": "8.6.1"
    },
    "type": "secret_detection",
    "start_time": "2022-05-03T16:27:30",
    "end_time": "2022-05-03T16:27:30",
    "status": "success"
  }
}